%YAML 1.1
%TAG !u! tag:unity3d.com,2011:
--- !u!78 &1
TagManager:
  serializedVersion: 2
  tags:
  - Bounds
  - SpawnPoint
  - PlayerProjectile
  - Enemy
  layers:
  - Default
  - TransparentFX
  - Ignore Raycast
  - 
  - Water
  - UI
  - Player
  - Enemy
  - Collectible
  - PlayerProjectile
  - EnemyProjectile
  - Shield
  - Special
  - PlayerPointDefenseProjectile
  - EnemyPointDefenseProjectile
  - 
  - 
  - 
  - 
  - 
  - 
  - 
  - 
  - 
  - 
  - 
  - 
  - 
  - 
  - 
  - 
  - 
  m_SortingLayers:
  - name: Default
    uniqueID: 0
    locked: 0
